Crime Busters Drugs
…
data_v3 <- data_v2 %>%
  as_tsibble(index=Month) %>%
  arrange(., Month) 
data_v3

## # A tsibble: 102 x 2 [1M]
##       Month Clearances_month
##       <mth>            <dbl>
##  1 2013 Mar              581
##  2 2013 Apr              588
##  3 2013 May              637
##  4 2013 Jun              502
##  5 2013 Jul              479
##  6 2013 Aug              502
##  7 2013 Sep              401
##  8 2013 Oct              391
##  9 2013 Nov              396
## 10 2013 Dec              411
## #  with 92 more rows
## #  Use `print(n = ...)` to see more rows
…
General plot shows increasing trend, with a massive drop in May 2020.
Variance fairly constant?

Seasonal plot shows that possibly number of prosecutions is highest
at the middle of the year

We now filter our dataset, to only include data pre-MODA changes:

pre_moda <- data_v3 %>%
  filter(Month >= yearmonth("2013 Mar"), Month <= yearmonth("2019 Jul"))
pre_moda

## # A tsibble: 77 x 2 [1M]
##       Month Clearances_month
##       <mth>            <dbl>
##  1 2013 Mar              581
##  2 2013 Apr              588
##  3 2013 May              637
##  4 2013 Jun              502
##  5 2013 Jul              479
##  6 2013 Aug              502
##  7 2013 Sep              401
##  8 2013 Oct              391
##  9 2013 Nov              396
## 10 2013 Dec              411
## #  with 67 more rows
## #  Use `print(n = ...)` to see more rows

Within per_moda, we need to create a training set and a test set to
test model accuracy. Lets use the last year (roughly 20% of the data)
as test data

training <- pre_moda %>%
  filter(Month >= yearmonth("2013 Mar"), Month <= yearmonth("2018 Jul"))
training

## # A tsibble: 65 x 2 [1M]
##       Month Clearances_month
##       <mth>            <dbl>
##  1 2013 Mar              581
##  2 2013 Apr              588
##  3 2013 May              637
##  4 2013 Jun              502
##  5 2013 Jul              479
##  6 2013 Aug              502
##  7 2013 Sep              401
##  8 2013 Oct              391
##  9 2013 Nov              396
## 10 2013 Dec              411
## #  with 55 more rows
## #  Use `print(n = ...)` to see more rows
…
