Crime Busters Drugs
…
data_v3 <- data_v2 %>%
  as_tsibble(index=Month) %>%
  arrange(., Month) 
data_v3

## # A tsibble: 102 x 2 [1M]
##       Month Clearances_month
##       <mth>            <dbl>
##  1 2013 Mar              116
##  2 2013 Apr              121
##  3 2013 May              133
##  4 2013 Jun              116
##  5 2013 Jul              129
##  6 2013 Aug              115
##  7 2013 Sep              133
##  8 2013 Oct              123
##  9 2013 Nov               97
## 10 2013 Dec              112
## #  with 92 more rows
## #  Use `print(n = ...)` to see more rows
…
General plot shows increasing trend, arguably greater variability but
perhaps only post MODA changes (August 2019).

Seasonal plot shows that possibly number of alternative actions is
highest at the end of the year, and lowest at the start

We now filter our dataset, to only include data pre-MODA changes:

pre_moda <- data_v3 %>%
  filter(Month >= yearmonth("2013 Mar"), Month <= yearmonth("2019 Jul"))
pre_moda

## # A tsibble: 77 x 2 [1M]
##       Month Clearances_month
##       <mth>            <dbl>
##  1 2013 Mar              116
##  2 2013 Apr              121
##  3 2013 May              133
##  4 2013 Jun              116
##  5 2013 Jul              129
##  6 2013 Aug              115
##  7 2013 Sep              133
##  8 2013 Oct              123
##  9 2013 Nov               97
## 10 2013 Dec              112
## #  with 67 more rows
## #  Use `print(n = ...)` to see more rows

Within per_moda, we need to create a training set and a test set to
test model accuracy. Lets use the last year (roughly 20% of the data)
as test data

training <- pre_moda %>%
  filter(Month >= yearmonth("2013 Mar"), Month <= yearmonth("2018 Jul"))
training

## # A tsibble: 65 x 2 [1M]
##       Month Clearances_month
##       <mth>            <dbl>
##  1 2013 Mar              116
##  2 2013 Apr              121
##  3 2013 May              133
##  4 2013 Jun              116
##  5 2013 Jul              129
##  6 2013 Aug              115
##  7 2013 Sep              133
##  8 2013 Oct              123
##  9 2013 Nov               97
## 10 2013 Dec              112
## #  with 55 more rows
## #  Use `print(n = ...)` to see more rows
…
